﻿<!DOCTYPE html>
<html>
<body style=”color:grey; font-size:15px;”>
    <!--<font face=”Helvetica, arial, sans-serif”>-->

        <div style=”position:absolute; height:100px; width:600px; background-color:0d1d36; padding:30px;”>
            <img src=”logo” />
        </div>

        <br />
        <br />

        <div style=”background-color: #ece8d4; width:600px; height:200px; padding:30px; margin-top:30px;”>

            <p>Dear {0},</p>

                Username: {1}<br>
                Password: {2}<br>



                <br />
            <p>Thank you</p>
        </div>
</body>
</html>